Added Component: Designator=FID?(FIDUCIAL)
Added Component: Designator=FID?(FIDUCIAL)
Added Component: Designator=FID?(FIDUCIAL)
Added Component: Designator=FID?(FIDUCIAL)
Added Component: Designator=FID?(FIDUCIAL)
Added Component: Designator=FID?(FIDUCIAL)
Added Component: Designator=FID?(FIDUCIAL)
Added Component: Designator=FID?(FIDUCIAL)
Added Member To Class: ClassName=Nova Schena Member=Component FID? FIDUCIAL
Added Member To Class: ClassName=Nova Schena Member=Component FID? FIDUCIAL
Added Member To Class: ClassName=Nova Schena Member=Component FID? FIDUCIAL
Added Member To Class: ClassName=Nova Schena Member=Component FID? FIDUCIAL
Added Member To Class: ClassName=Nova Schena Member=Component FID? FIDUCIAL
Added Member To Class: ClassName=Nova Schena Member=Component FID? FIDUCIAL
Added Member To Class: ClassName=Nova Schena Member=Component FID? FIDUCIAL
Added Member To Class: ClassName=Nova Schena Member=Component FID? FIDUCIAL
