Removed Pin From Net: NetName=12V_HV Pin=X1-1
Removed Pin From Net: NetName=A_IN Pin=X1-5
Removed Pin From Net: NetName=HV_GND Pin=X1-6
Added Pin To Net: NetName=HV_GND Pin=X1-1
Added Pin To Net: NetName=A_IN Pin=X1-2
Added Pin To Net: NetName=12V_HV Pin=X1-6
Added Room: Name=Nova Schena
