Removed Pin From Net: NetName=5V_HV Pin=C10-1
Removed Pin From Net: NetName=HV_GND Pin=C10-2
Removed Pin From Net: NetName=5V_HV Pin=C13-1
Removed Pin From Net: NetName=HV_GND Pin=C13-2
Removed Pin From Net: NetName=5V_HV Pin=C16-1
Removed Pin From Net: NetName=HV_GND Pin=C16-2
Removed Member From Class: ClassName=Nova Schena Member=C10
Removed Member From Class: ClassName=Nova Schena Member=C13
Removed Member From Class: ClassName=Nova Schena Member=C16
Added Room: Name=Nova Schena
