Added Component: Designator=R1(RES_0603)
Add component (AddParameter): Name = "Manufacturer"; Value = "Kelco"; VariantName = "[No Variations]"
Add component (AddParameter): Name = "Manufacturer Part Nuber"; Value = "11706"; VariantName = "[No Variations]"
Add component (AddParameter): Name = "Package"; Value = "0603"; VariantName = "[No Variations]"
Add component (AddParameter): Name = "Power"; Value = "0.1W"; VariantName = "[No Variations]"
Add component (AddParameter): Name = "Power Derange"; Value = "/"; VariantName = "[No Variations]"
Add component (AddParameter): Name = "Resistance"; Value = "3K3"; VariantName = "[No Variations]"
Add component (AddParameter): Name = "Supplier"; Value = "Kelco"; VariantName = "[No Variations]"
Add component (AddParameter): Name = "Supplier Part Number"; Value = "11706"; VariantName = "[No Variations]"
Add component (AddParameter): Name = "Temperature Range"; Value = "/"; VariantName = "[No Variations]"
Add component (AddParameter): Name = "Tolerance"; Value = "1%"; VariantName = "[No Variations]"
Added Component: Designator=R10(RES_0603)
Add component (AddParameter): Name = "Manufacturer"; Value = "Kelco"; VariantName = "[No Variations]"
Add component (AddParameter): Name = "Manufacturer Part Nuber"; Value = "11706"; VariantName = "[No Variations]"
Add component (AddParameter): Name = "Package"; Value = "0603"; VariantName = "[No Variations]"
Add component (AddParameter): Name = "Power"; Value = "0.1W"; VariantName = "[No Variations]"
Add component (AddParameter): Name = "Power Derange"; Value = "/"; VariantName = "[No Variations]"
Add component (AddParameter): Name = "Resistance"; Value = "3K3"; VariantName = "[No Variations]"
Add component (AddParameter): Name = "Supplier"; Value = "Kelco"; VariantName = "[No Variations]"
Add component (AddParameter): Name = "Supplier Part Number"; Value = "11706"; VariantName = "[No Variations]"
Add component (AddParameter): Name = "Temperature Range"; Value = "/"; VariantName = "[No Variations]"
Add component (AddParameter): Name = "Tolerance"; Value = "1%"; VariantName = "[No Variations]"
Added Component: Designator=R18(RES_0603)
Add component (AddParameter): Name = "Manufacturer"; Value = "Kelco"; VariantName = "[No Variations]"
Add component (AddParameter): Name = "Manufacturer Part Nuber"; Value = "11706"; VariantName = "[No Variations]"
Add component (AddParameter): Name = "Package"; Value = "0603"; VariantName = "[No Variations]"
Add component (AddParameter): Name = "Power"; Value = "0.1W"; VariantName = "[No Variations]"
Add component (AddParameter): Name = "Power Derange"; Value = "/"; VariantName = "[No Variations]"
Add component (AddParameter): Name = "Resistance"; Value = "3K3"; VariantName = "[No Variations]"
Add component (AddParameter): Name = "Supplier"; Value = "Kelco"; VariantName = "[No Variations]"
Add component (AddParameter): Name = "Supplier Part Number"; Value = "11706"; VariantName = "[No Variations]"
Add component (AddParameter): Name = "Temperature Range"; Value = "/"; VariantName = "[No Variations]"
Add component (AddParameter): Name = "Tolerance"; Value = "1%"; VariantName = "[No Variations]"
Added Net: Name=3V3_UNISO
Added Net: Name=5V_ISO
Added Net: Name=5V_UNISO
Added Net: Name=BAT+
Added Net: Name=BAT-
Added Net: Name=BAT_60V_IZLAZ
Added Net: Name=BAT_60V_PROVERA
Added Net: Name=BAT_60V
Added Net: Name=BAT_VS_INV
Added Pin To Net: NetName=GND_UNISO Pin=R1-2
Added Pin To Net: NetName=GND_UNISO Pin=R10-2
Added Pin To Net: NetName=GND_UNISO Pin=R18-2
Added Net: Name=GND_UNISO
Added Net: Name=INV+
Added Net: Name=INV_60V_IZLAZ
Added Net: Name=INV_60V_PROVERA
Added Net: Name=INV_60V
Added Pin To Net: NetName=NetIC2_6 Pin=R1-1
Added Net: Name=NetIC2_6
Added Pin To Net: NetName=NetIC3_6 Pin=R10-1
Added Net: Name=NetIC3_6
Added Pin To Net: NetName=NetIC4_6 Pin=R18-1
Added Net: Name=NetIC4_6
Added Net: Name=NetR2_1
Added Net: Name=NetR3_1
Added Net: Name=NetR4_1
Added Net: Name=NetR5_1
Added Net: Name=NetR6_1
Added Net: Name=NetR11_1
Added Class: Name=Main
Added Room: Name=Main
